<?xml version="1.0" standalone="no"?>
<!DOCTYPE svg PUBLIC "-//W3C//DTD SVG 1.1//EN" "http://www.w3.org/Graphics/SVG/1.1/DTD/svg11.dtd" >
<svg xmlns="http://www.w3.org/2000/svg">
<metadata>
This is a custom SVG font generated byIcoMoon.
<iconset grid="16"></iconset>
</metadata>
<defs>
<font id="icomoon" horiz-adv-x="512" >
<font-face units-per-em="512" ascent="480" descent="-32" />
<missing-glyph horiz-adv-x="512" />

<glyph unicode="&#x31;" d="M 219.635-7.61l0,71.505 57.409,0 0-71.505 -57.409,0zm 0.036,122.383c-0.817,18.916 4.241,42.415 10.912,60.073 15.982,42.304 46.509,72.165 75.085,105.936 6.78,9.325 11.864,18.964 15.251,28.915 3.387,9.949 5.080,20.22 5.080,30.81 0,57.661 -61.349,81.136 -109.292,60.668 -18.55-7.919 -31.982-24.569 -38.465-43.398 -3.694-10.731 -5-21.533 -5-32.84l-58.050,0c0,19.061 2.676,37.358 9.59,55.194 12.769,32.945 39.56,60.993 72.385,74.318 32.394,13.149 74.92,12.748 107.974,2.022 32.2-10.449 60.038-32.492 73.869-63.889 16.804-38.142 12.828-98.393 -10.487-132.637l-0.001,0c-14.86-23.952 -47.187-42.964 -65.452-67.942 -11.453-15.661 -17.925-33.114 -21.64-52.050 -1.652-8.418 -2.467-16.605 -2.467-25.181l-59.295,0z" />
<glyph unicode="&#x32;" d="M 340.806,411.774l-235.262-91.845 164.81-75.161c 0.227-0.112 64.458,152.774 70.452,167.006zm-314.908-381.9l 462.421,0 0,228.788 -45.089,0 12.5-32.203 -9.507-3.705c 3.276-5.81 4.966-12.41 4.966-19.077l0-48.116 -388.161,0 0,48.116c0,9.953 3.722,19.065 9.708,25.724 5.441,6.050 12.753,10.111 20.93,11.063l-7.144,18.198 -60.624,0 0-228.788zm-21.44-21.44l0,271.668 85.129,0c-5.892,15.016 -11.78,30.034 -17.661,45.054l 290.059,113.234c 20.486-52.763 40.969-105.525 61.456-158.288l 86.318,0 0-271.668 -505.301,0zm 109.026,210.808l-16.105,0c-3.323,0 -6.428-1.599 -8.735-4.164 -2.573-2.86 -4.177-6.899 -4.177-11.402l0-26.676 45.609,0c-5.53,14.081 -11.062,28.161 -16.593,42.241zm 35.021-42.241l 19.911,0 34.59,79.607 -104.426,47.601 49.925-127.208zm 38.619,0l 65.163,0 155.893,60.851 -102.814,45.505 -25.998-61.443 -60.753,27.576 -31.491-72.489zm 112.513,0l 130.113,0 0,26.676c0,3.13 -0.772,6.020 -2.101,8.443 -1.321,2.41 -3.182,4.374 -5.339,5.622l-7.392,4.279c-38.434-14.987 -76.856-30.007 -115.28-45.020zm 56.929,227.934l-44.557-105.777 103.393-45.732 -58.836,151.509z" />
<glyph unicode="&#x33;" d="M 374.513,27.115l0,56.231c-1.537,13.712 -9.043,17.182 -16.58,20.827l-93.241,43.040c-15.053,7.464 -11.68,30.373 -25.753,27.075 -5.061,0.58 -3.68,11.743 -1.829,13.191 12.245,1.91 9.492,26.381 14.21,39.57 12.996,1.641 15.652,28.147 15.879,47.468 0.077,6.821 1.043,8.070 -3.365,9.94l 0.532,11.309 0.010,0.009c 15.798,79.958 -1.671,87.299 -22.528,110.901 -5.338-1.153 -11.282-1.212 -17.638-0.521 -13.14,20.249 -44.527,15.506 -56.9,7.636 -23.775-5.781 -38.962-23.135 -45.552-52.065l 3.096-65.951 -0.010,0 0.013-0.057 0.544-11.265c-4.416-1.872 -3.463-3.119 -3.382-9.937 0.229-19.32 2.883-45.827 15.844-47.468 4.754-13.188 1.994-37.66 14.262-39.57 1.84-1.448 3.221-12.611 -1.84-13.191 -14.11,3.298 -10.735-19.61 -25.765-27.075l-93.25-43.040c-7.514-3.645 -15.028-7.115 -16.563-20.827l0-56.231 186.205,0 32.806,0 140.793,0zM 363.624,336.589c-41.085,5.121 -53.944-20.24 -58.095-49.361 -2.774-19.448 2.055-39.626 -0.611-57.697 -1.767-11.967 -7.566-20.561 -15.372-32.681l 13.497,7.639c-0.891-16.218 -11.282-27.402 -23.619-37.141 13.827-6.74 28.191-11.658 44.477-10.067 9.456,0.736 7.981-9.862 1.502-13.643l-4.571-2.671 56.748-30.545c 11.861-7.136 16.125-19.613 16.127-35.088l 0.438-49.259 108.722-0.012 0.822,38.591c-0.267,14.733 -8.818,21.836 -18.75,25.983 -33.071,16.105 -63.89,28.508 -85.243,49.531 -4.564,4.211 -3.559,9.885 -2.983,13.092 0.446,2.497 2.495,4.343 6.632,4.022 16.286-1.591 30.651,3.327 44.477,10.067 -12.337,9.739 -22.728,20.924 -23.619,37.141l 13.497-7.639c-7.806,12.12 -13.605,20.714 -15.372,32.681 -2.666,18.071 2.163,38.25 -0.611,57.697 -4.151,29.121 -17.008,54.481 -58.093,49.361z" />
<glyph unicode="&#x34;" d="M 353.355,168.622c 16.637-1.498 42.298,12.593 49.962,27.435 -55.332,115.121 -107.796,196.309 -157.386,243.556l-13.626-7.482c 13.254-67.199 53.605-155.039 121.050-263.509zM 403.4,90.568l 39.771,21.839c 9.010-9.744 39.542-48.535 51.656-71.621 17.574-33.497 -40.060-64.83 -58.696-32.231 -12.948,22.627 -29.349,69.178 -32.732,82.012zM 367.625,157.963c 12.624,6.932 25.25,13.865 37.873,20.797 18.935-12.44 29.117-32.443 31.864-58.71 -12.431-6.826 -24.867-13.655 -37.298-20.481 -20.689,16.414 -32.103,35.74 -32.439,58.394zM 39.068,93.912c 35.252,58.856 70.505,117.712 105.759,176.57 10.462-16.673 26.271-23.83 44.509-26.661l-105.759-176.568c-18.886,3.619 -34.264,11.803 -44.509,26.658zM 156.538,290.401l 24.231,40.457c 10.948-14.505 25.782-23.394 44.509-26.661l-24.231-40.455c-18.886,3.619 -34.264,11.803 -44.509,26.658zM 187.586,343.218l 8.946,13.981c 19.584-1.106 34.418-9.995 44.509-26.661l-8.946-13.979c-18.886,3.619 -34.263,11.803 -44.509,26.658zM 17.326,8.175l 16.098,76.18c 10.462-16.673 26.271-23.831 44.509-26.661l-60.607-49.52zM 6.589,239.219l 100.832,0 -55.975-93.388 -44.857,0 0,93.388zm 200.088,0l 85.123,0 55.977-93.388 -197.078,0 55.977,93.388zm 190.344,0l 107.001,0 0-93.388 -51.024,0 -55.977,93.388z" />
<glyph unicode="&#x36;" d="M 284.725,461.012l 164.961-95.24 0.013-0.006c 8.292-4.941 15.621-12.109 20.599-21.201 4.437-8.103 7.005-17.732 6.718-28.666l 0.003,0 0-190.501 -0.003-0.009c-0.132-9.652 -2.677-19.583 -8.060-28.439 -4.805-7.905 -11.868-14.949 -21.485-20.167l-0.001,0.001 -164.96-95.24 -0.012-0.006c-8.424-4.71 -18.295-7.473 -28.655-7.238 -9.241,0.209 -18.866,2.8 -28.191,8.514l-164.979,95.25 -0.010,0.006c-8.292,4.94 -15.621,12.109 -20.599,21.2 -4.437,8.104 -7.005,17.733 -6.718,28.667l-0.003,0 0,190.501 0.003,0.009c 0.132,9.652 2.675,19.584 8.060,28.439 4.806,7.905 11.867,14.949 21.485,20.167l 0.002-0.003 164.962,95.241 0.009,0.006c 8.424,4.711 18.296,7.473 28.655,7.238 9.246-0.209 18.877-2.803 28.206-8.524l-0.001-0.001zm 164.164-96.6l-164.967,95.244 -0.018,0.010c-9.080,5.568 -18.439,8.092 -27.415,8.295 -10.067,0.228 -19.664-2.459 -27.858-7.041l-0.001,0.001 -164.969-95.245 -0.015-0.012c-9.364-5.081 -16.229-11.923 -20.892-19.592 -5.23-8.6 -7.701-18.251 -7.831-27.633l 0.003,0 0-190.501 -0.003-0.018c-0.282-10.647 2.213-20.016 6.527-27.895 4.832-8.826 11.953-15.791 20.014-20.595l 0.001,0.001 164.979-95.25 0.015-0.009c 9.080-5.568 18.439-8.092 27.415-8.295 10.062-0.228 19.655,2.457 27.846,7.034l0,0.001 164.979,95.25 0.018,0.012c 9.364,5.080 16.23,11.923 20.892,19.592 5.229,8.6 7.701,18.251 7.831,27.633l-0.003,0 0,190.501 0.003,0.018c 0.282,10.646 -2.213,20.015 -6.527,27.894 -4.835,8.831 -11.96,15.798 -20.024,20.602l 0.001,0.001z" />
<glyph unicode="&#x20;" horiz-adv-x="256" />
</font></defs></svg>